{
	"info": {
		"_postman_id": "84719e41-2a5e-4afb-bba8-ee9a3b3a5bc5",
		"name": "dates parsing",
		"schema": "https://schema.getpostman.com/json/collection/v2.1.0/collection.json"
	},
	"item": [
		{
			"name": "http://127.0.0.1:5000/AI/v1/dates",
			"request": {
				"auth": {
					"type": "noauth"
				},
				"method": "POST",
				"header": [
					{
						"key": "Content-Type",
						"value": "application/json",
						"type": "text",
						"disabled": true
					},
					{
						"key": "Authorization",
						"value": "Bearer eyJ0eXAiOiJKV1QiLCJhbGciOiJIUzI1NiJ9.eyJpYXQiOjE2MDQwNTk2NTMsIm5iZiI6MTYwNDA1OTY1MywianRpIjoiYjQzMDk2NTQtODJjYS00YTcyLWE4NTAtMmFhMDMyNzI3MDJiIiwiZXhwIjoxNjM1NTk1NjUzLCJpZGVudGl0eSI6MSwiZnJlc2giOnRydWUsInR5cGUiOiJhY2Nlc3MifQ.1rVBSzhppHzr3K2og-roRipmNMVpZPrNk8h-K5WLUO0",
						"type": "text"
					}
				],
				"body": {
					"mode": "formdata",
					"formdata": [
						{
							"key": "file",
							"type": "file",
							"src": "/C:/Users/Rahul Saini/Downloads/ConvertedToDocx/ConvertedToDocx/00cc8a78-98fd-4223-954c-4200cb22cce8SQUID DESIGN SYSTEMS NDA H12-11-12651 Fully Executed_abbyy.docx"
						},
						{
							"key": "server",
							"value": "UK",
							"type": "text"
						}
					]
				},
				"url": {
					"raw": "http://127.0.0.1:5000/AI/v1/dates",
					"protocol": "http",
					"host": [
						"127",
						"0",
						"0",
						"1"
					],
					"port": "5000",
					"path": [
						"AI",
						"v1",
						"dates"
					]
				}
			},
			"response": []
		},
		{
			"name": "date UAT Server",
			"request": {
				"auth": {
					"type": "noauth"
				},
				"method": "POST",
				"header": [
					{
						"key": "Content-Type",
						"value": "application/json",
						"type": "text",
						"disabled": true
					},
					{
						"key": "Authorization",
						"value": "Bearer eyJ0eXAiOiJKV1QiLCJhbGciOiJIUzI1NiJ9.eyJpYXQiOjE2MDQwNTk2NTMsIm5iZiI6MTYwNDA1OTY1MywianRpIjoiYjQzMDk2NTQtODJjYS00YTcyLWE4NTAtMmFhMDMyNzI3MDJiIiwiZXhwIjoxNjM1NTk1NjUzLCJpZGVudGl0eSI6MSwiZnJlc2giOnRydWUsInR5cGUiOiJhY2Nlc3MifQ.1rVBSzhppHzr3K2og-roRipmNMVpZPrNk8h-K5WLUO0",
						"type": "text"
					}
				],
				"body": {
					"mode": "formdata",
					"formdata": [
						{
							"key": "file",
							"type": "file",
							"src": "/C:/Users/Rahul Saini/Downloads/ConvertedToDocx/ConvertedToDocx/00cc8a78-98fd-4223-954c-4200cb22cce8SQUID DESIGN SYSTEMS NDA H12-11-12651 Fully Executed_abbyy.docx"
						},
						{
							"key": "server",
							"value": "UK",
							"type": "text"
						}
					]
				},
				"url": {
					"raw": "http://72.168.0.16/AI/v1/dates",
					"protocol": "http",
					"host": [
						"72",
						"168",
						"0",
						"16"
					],
					"path": [
						"AI",
						"v1",
						"dates"
					]
				}
			},
			"response": []
		},
		{
			"name": "date prod Server",
			"request": {
				"auth": {
					"type": "noauth"
				},
				"method": "POST",
				"header": [
					{
						"key": "Content-Type",
						"type": "text",
						"value": "application/json",
						"disabled": true
					},
					{
						"key": "Authorization",
						"type": "text",
						"value": "Bearer eyJ0eXAiOiJKV1QiLCJhbGciOiJIUzI1NiJ9.eyJpYXQiOjE2MDQwNTk2NTMsIm5iZiI6MTYwNDA1OTY1MywianRpIjoiYjQzMDk2NTQtODJjYS00YTcyLWE4NTAtMmFhMDMyNzI3MDJiIiwiZXhwIjoxNjM1NTk1NjUzLCJpZGVudGl0eSI6MSwiZnJlc2giOnRydWUsInR5cGUiOiJhY2Nlc3MifQ.1rVBSzhppHzr3K2og-roRipmNMVpZPrNk8h-K5WLUO0"
					}
				],
				"body": {
					"mode": "formdata",
					"formdata": [
						{
							"key": "file",
							"type": "file",
							"src": "/C:/Users/Rahul Saini/Downloads/ConvertedToDocx/ConvertedToDocx/00cc8a78-98fd-4223-954c-4200cb22cce8SQUID DESIGN SYSTEMS NDA H12-11-12651 Fully Executed_abbyy.docx"
						},
						{
							"key": "server",
							"value": "UK",
							"type": "text"
						}
					]
				},
				"url": {
					"raw": "http://192.168.3.6/AI/v1/dates",
					"protocol": "http",
					"host": [
						"192",
						"168",
						"3",
						"6"
					],
					"path": [
						"AI",
						"v1",
						"dates"
					]
				}
			},
			"response": []
		},
		{
			"name": "login",
			"request": {
				"method": "POST",
				"header": [
					{
						"key": "Content-Type",
						"value": "application/json",
						"type": "text"
					}
				],
				"body": {
					"mode": "raw",
					"raw": "{\r\n    \"username\":\"cadmin1\",\r\n    \"password\":\"xT60Pn$ZnchBV1S@R\"\r\n}"
				},
				"url": {
					"raw": "http://192.168.3.6/AI/login",
					"protocol": "http",
					"host": [
						"192",
						"168",
						"3",
						"6"
					],
					"path": [
						"AI",
						"login"
					]
				}
			},
			"response": []
		}
	]
}